…
    ## Rows: 787 Columns: 2
    ## ── Column specification ────────────────────────────────────────────────────────
    ## Delimiter: ","
    ## chr (1): date
    ## dbl (1): close
    ## 
    ## ℹ Use `spec()` to retrieve the full column specification for this data.
    ## ℹ Specify the column types or set `show_col_types = FALSE` to quiet this message.

``` r
  select(snp_df, year, month, close)
```

    ## # A tibble: 787 × 3
    ##    year  month    close
    ##    <chr> <chr>    <dbl>
    ##  1 15    July     2080.
    ##  2 15    June     2063.
    ##  3 15    May      2107.
    ##  4 15    April    2086.
    ##  5 15    March    2068.
    ##  6 15    Feburary 2104.
    ##  7 15    January  1995.
    ##  8 14    December 2059.
    ##  9 14    November 2068.
    ## 10 14    October  2018.
    ## # ℹ 777 more rows
…
